Analysis of RNA-seq data
…
---
  
## Getting pathays from MSigDB

```r
# Hallmark pathways from MSigDB
m_df <- msigdbr(species = "Mus musculus", category = "H")
m_df
```

```
## # A tibble: 7,392 x 9
##    gs_name gs_id gs_cat gs_subcat human_gene_symb… species_name entrez_gene
##    <chr>   <chr> <chr>  <chr>     <chr>            <chr>              <int>
##  1 HALLMA… M5905 H      ""        ABCA1            Mus musculus       11303
##  2 HALLMA… M5905 H      ""        ABCB8            Mus musculus       74610
##  3 HALLMA… M5905 H      ""        ACAA2            Mus musculus       52538
##  4 HALLMA… M5905 H      ""        ACADL            Mus musculus       11363
##  5 HALLMA… M5905 H      ""        ACADM            Mus musculus       11364
##  6 HALLMA… M5905 H      ""        ACADS            Mus musculus       11409
##  7 HALLMA… M5905 H      ""        ACLY             Mus musculus      104112
##  8 HALLMA… M5905 H      ""        ACO2             Mus musculus       11429
##  9 HALLMA… M5905 H      ""        ACOX1            Mus musculus       11430
## 10 HALLMA… M5905 H      ""        ADCY6            Mus musculus       11512
## # … with 7,382 more rows, and 2 more variables: gene_symbol <chr>,
## #   sources <chr>
```
…
